…
``` r
set.seed(2022) # For reproducibility
# For each of 4 values of lambda, perform 1000 simulations of n = 100 observations
sim_study <- expand_grid(lambda = 1:4, n = 100, sim = 1:1000) %>% 
  rowwise() %>% 
  mutate(data = list(tibble(x = rztpois(n, lambda))), # Simulate data
         fit = list(fitztpois(data$x)), # Fit the MLE
         results = list(tibble( # Store the results
           method = c("MLE", "mean"),
           estimate = c(fit$estimate, mean(data$x))
         )))
sim_study
```

    ## # A tibble: 4,000 x 6
    ## # Rowwise: 
    ##    lambda     n   sim data               fit              results         
    ##     <int> <dbl> <int> <list>             <list>           <list>          
    ##  1      1   100     1 <tibble [100 x 1]> <named list [2]> <tibble [2 x 2]>
    ##  2      1   100     2 <tibble [100 x 1]> <named list [2]> <tibble [2 x 2]>
    ##  3      1   100     3 <tibble [100 x 1]> <named list [2]> <tibble [2 x 2]>
    ##  4      1   100     4 <tibble [100 x 1]> <named list [2]> <tibble [2 x 2]>
    ##  5      1   100     5 <tibble [100 x 1]> <named list [2]> <tibble [2 x 2]>
    ##  6      1   100     6 <tibble [100 x 1]> <named list [2]> <tibble [2 x 2]>
    ##  7      1   100     7 <tibble [100 x 1]> <named list [2]> <tibble [2 x 2]>
    ##  8      1   100     8 <tibble [100 x 1]> <named list [2]> <tibble [2 x 2]>
    ##  9      1   100     9 <tibble [100 x 1]> <named list [2]> <tibble [2 x 2]>
    ## 10      1   100    10 <tibble [100 x 1]> <named list [2]> <tibble [2 x 2]>
    ## # ... with 3,990 more rows
…
